{"events":[{"title":"Black Tech Founders Monthly Call","description":"Monthly virtual meetup for Black tech founders and aspiring entrepreneurs. Discuss fundraising strategies, product development, team building, and the unique challenges facing Black founders in tech. Guest speaker: TBD. Open to founders at all stages.","category":"Webinar","start_date":"2025-11-09T19:57:02.563000","end_date":"2025-11-09T21:27:02.563000","timezone":"America/New_York","event_type":"Virtual","location_name":null,"location_address":null,"location_url":null,"virtual_url":"https://zoom.us/j/banibs-tech-founders","organizer_email":"tech@banibs.com","image_url":null,"rsvp_limit":100,"tags":["tech","founders","virtual","startup","fundraising"],"featured":true,"id":"50f0b7dc-34c2-4530-9f56-8a73e393bb51","organizer_id":"88887676-465e-4dbe-8a3f-b1a3d2a8b3a5","organizer_name":"admin","rsvp_count":0,"rsvp_users":[],"status":"upcoming","created_at":"2025-11-02T19:57:02.575000","updated_at":"2025-11-02T20:06:36.409000","published_at":"2025-11-02T19:57:02.575000"},{"title":"BANIBS Small Business Meetup - New York","description":"Join fellow Black and Indigenous entrepreneurs for an evening of networking, knowledge sharing, and community building. Connect with local business owners, discuss challenges, and explore collaboration opportunities. Light refreshments provided.","category":"Meetup","start_date":"2025-11-16T19:57:02.563000","end_date":"2025-11-16T22:57:02.563000","timezone":"America/New_York","event_type":"In-Person","location_name":"BANIBS Community Hub","location_address":"123 Malcolm X Blvd, New York, NY 10027","location_url":"https://goo.gl/maps/example","virtual_url":null,"organizer_email":"events@banibs.com","image_url":null,"rsvp_limit":50,"tags":["networking","small-business","community","nyc"],"featured":true,"id":"2ae89490-b93e-4be1-b13e-3c80dbaf55cd","organizer_id":"88887676-465e-4dbe-8a3f-b1a3d2a8b3a5","organizer_name":"admin","rsvp_count":0,"rsvp_users":[],"status":"upcoming","created_at":"2025-11-02T19:57:02.563000","updated_at":"2025-11-02T19:57:02.563000","published_at":"2025-11-02T19:57:02.563000"},{"title":"Grant Application Workshop: Winning Strategies","description":"Learn how to write compelling grant applications that get funded. This hands-on workshop covers: identifying the right grants, crafting strong narratives, building realistic budgets, and common pitfalls to avoid. Includes Q&A session with grant reviewers.","category":"Workshop","start_date":"2025-11-23T19:57:02.563000","end_date":"2025-11-23T21:57:02.563000","timezone":"America/New_York","event_type":"Virtual","location_name":null,"location_address":null,"location_url":null,"virtual_url":"https://zoom.us/j/banibs-grant-workshop","organizer_email":"grants@banibs.com","image_url":null,"rsvp_limit":75,"tags":["grants","funding","workshop","business","nonprofit"],"featured":true,"id":"6249b74d-2358-4d8a-ba86-de424b7f5107","organizer_id":"88887676-465e-4dbe-8a3f-b1a3d2a8b3a5","organizer_name":"admin","rsvp_count":0,"rsvp_users":[],"status":"upcoming","created_at":"2025-11-02T19:57:02.575000","updated_at":"2025-11-02T19:57:02.575000","published_at":"2025-11-02T19:57:02.575000"}],"total":6,"page":1,"pages":2}