{"resources":[{"title":"Updated Resource Title","description":"Test resource created by admin","category":"Business Support","type":"Guide","content":"This is test content for the resource","external_url":null,"thumbnail_url":null,"video_url":null,"tags":["test","admin"],"featured":true,"id":"fed7538d-e929-4bd2-bbe4-d4c20c0f61fe","author_id":"88887676-465e-4dbe-8a3f-b1a3d2a8b3a5","author_name":"admin","view_count":8,"created_at":"2025-11-02T20:06:35.163000","updated_at":"2025-11-02T20:06:35.266000","published_at":"2025-11-02T20:06:35.163000","sentiment_score":0.0,"sentiment_label":"neutral","sentiment_at":"2025-11-02T23:35:28.767000","heavy_content":false,"banner_message":null},{"title":"Updated Resource Title","description":"Test resource created by admin","category":"Business Support","type":"Guide","content":"This is test content for the resource","external_url":null,"thumbnail_url":null,"video_url":null,"tags":["test","admin"],"featured":true,"id":"b128f7d3-9938-44bd-be55-c064728d239f","author_id":"88887676-465e-4dbe-8a3f-b1a3d2a8b3a5","author_name":"admin","view_count":2,"created_at":"2025-11-02T20:06:10.443000","updated_at":"2025-11-02T20:06:10.515000","published_at":"2025-11-02T20:06:10.443000","sentiment_score":0.0,"sentiment_label":"neutral","sentiment_at":"2025-11-02T23:35:28.767000","heavy_content":false,"banner_message":null},{"title":"Networking Groups & Organizations","description":"Connect with Black and Indigenous business communities","category":"Community & Culture","type":"Article","content":"# Business Networks\n\nFind your community and build connections...","external_url":null,"thumbnail_url":null,"video_url":null,"tags":["networking","community","organizations"],"featured":true,"id":"bc68b453-9d44-4644-b396-1f17626ce26b","author_id":"88887676-465e-4dbe-8a3f-b1a3d2a8b3a5","author_name":"admin","view_count":6,"created_at":"2025-11-02T19:56:56.097000","updated_at":"2025-11-02T19:56:56.097000","published_at":"2025-11-02T19:56:56.097000","sentiment_score":0.0,"sentiment_label":"neutral","sentiment_at":"2025-11-02T23:35:28.767000","heavy_content":false,"banner_message":null}],"total":8,"page":1,"pages":3}